<svg width="19" height="10" viewBox="0 0 19 10" fill="none" xmlns="http://www.w3.org/2000/svg">
<rect width="18" height="2" fill="#696969"/>
<rect y="7" width="11" height="2" fill="#696969"/>
<circle cx="17" cy="8" r="2" fill="#696969"/>
</svg>
