<svg width="22" height="15" viewBox="0 0 22 15" fill="none" xmlns="http://www.w3.org/2000/svg">
<rect width="22" height="1" fill="black"/>
<rect x="9" y="14" width="13" height="1" fill="black"/>
<rect y="7" width="22" height="1" fill="black"/>
</svg>
