<svg width="16" height="16" viewBox="0 0 16 16" fill="none" xmlns="http://www.w3.org/2000/svg">
<g clip-path="url(#clip0)">
<rect width="16" height="16" transform="translate(16 16) rotate(-180)" fill="white"/>
<path d="M7.23577 0.0448602C4.02618 0.404386 1.45393 2.9701 1.08787 6.17969C0.607414 10.3763 3.8693 13.9487 7.95809 13.9945L7.95809 15.8771C7.95809 15.9817 8.08883 16.0372 8.17707 15.9719L12.0534 13.1251C12.1188 13.0761 12.1188 12.9813 12.0534 12.9322L8.17708 10.0854C8.08883 10.0201 7.95809 10.0789 7.95809 10.1802L7.95809 12.0596C5.08515 12.0138 2.78418 9.56904 2.98029 6.64707C3.14698 4.13365 5.19628 2.09416 7.70969 1.93401C10.3735 1.76405 12.6385 3.66627 13.0438 6.18295C13.1189 6.65034 13.5275 6.99025 13.9981 6.99025C14.5832 6.99025 15.0408 6.47058 14.9492 5.89207C14.3805 2.30661 11.0696 -0.383303 7.23577 0.0448602Z" fill="#409D38"/>
</g>
<defs>
<clipPath id="clip0">
<rect width="16" height="16" fill="white" transform="translate(16 16) rotate(-180)"/>
</clipPath>
</defs>
</svg>
